Basic VWP Preprocessing for SR Eyelink Data
…
## 100 ms adjustment applied.

Note that if you have used the align_msg function (illustrated in the SR_Align_Message vignette), you may need to specify a column name in Adjust. That column can be used to apply the recording event specific adjustment to each . Consult that vignette for further details.

The function check_time_series can be used to verify the time series. It outputs the unique start times present in the data. These will be the same standardized time point relative to the stimulus if you have exported your data from Data Viewer with pre-defined interest period relative to a message. By specifying the parameter ReturnData = T, the function can return a summary data frame that can be used to inspect the start time of each event. As you can see below, by providing Adjust with a postive value, we have effectively shifted the zero point forward along the number line, causing the first sample to have a negative time value.

check_time_series(data = dat2)

## [1] -100

Another way to check that your time series has been created correctly is to use the check_msg_time function. By providing the appropriate message text, we can see that the onset of our target now occurs at Time = 0. Note that the Msg parameter can handle exact matches or matches based on regular expressions. As with check_time_series, the parameter ReturnData = T will return a summary data frame that can be used to inspect the message time of each event.

check_msg_time(data = dat2, Msg = "TargetOnset")

## # A tibble: 320 x 3
##    Event   SAMPLE_MESSAGE  Time
##    <fctr>  <fctr>         <dbl>
##  1 14001.1 TargetOnset        0
##  2 14002.1 TargetOnset        0
##  3 14003.1 TargetOnset        0
##  4 14004.1 TargetOnset        0
##  5 14005.1 TargetOnset        0
##  6 14006.1 TargetOnset        0
##  7 14008.1 TargetOnset        0
##  8 14010.1 TargetOnset        0
##  9 14001.2 TargetOnset        0
## 10 14002.2 TargetOnset        0
## # ... with 310 more rows
…
