Aligning Sample Data to a Specific Sample Message in SR Eyelink Data
…
2018-03-19

Sometimes, depending on the design of the experiment, you may decide not to define an interest period in Data Viewer prior to exporting the data. If this is the case, there are some functions in VWPre which can help to align the data to your critical stimulus. Specifically, these functions search for a specific Eyelink message which was read out during the recording sequence. They will align the samples to this message, and, if necessary, also apply a variable adjustment forward or backward in time. This depends on whether the message signals the onset of the stimulus itself, or rather, serves as a reference point for the onset of the stimulus.

Before aligning

In order to perform the alignment, you must first load your sample report and complete the first two preprocessing steps using the functions prep_data and relabel_na provided in this package. These step will ensure that an Event column (unique index of each recording sequence - typically the combination of Subject and Trial) is created. A description of these can be found in the Basic Preprocessing vignette.

Aligning to a specific message

Using the function check_msg_time you can see that the TIMESTAMP values associated with the message are not the same for each event. This indicates that alignment is required. Note that a regular expression (regex) can be used here as the message string.

check_msg_time(data = aligndat, Msg = "VowelOnset")

## # A tibble: 320 x 3
##    Event    SAMPLE_MESSAGE TIMESTAMP
##    <fctr>   <fctr>             <dbl>
##  1 14001.1  VowelOnset       1047469
##  2 14001.2  VowelOnset       1054718
##  3 14001.3  VowelOnset       1062679
##  4 14001.4  VowelOnset       1069987
##  5 14001.5  VowelOnset       1077113
##  6 14001.6  VowelOnset       1084338
##  7 14001.7  VowelOnset       1091555
##  8 14001.8  VowelOnset       1099738
##  9 14001.9  VowelOnset       1107363
## 10 14001.10 VowelOnset       1114682
## # ... with 310 more rows

The function align_msg is used to perform the alignment. To do this you must specify the message text as a string to the parameter Msg. Again, this string can contain a regular expression (regex) on which to locate the message. The function finds the instance of the message for each event and sets that sample as the zero point. Consequently, this creates a new column called Align, which represents the time sequence relative to the message.

aligned1 <- align_msg(data = aligndat, Msg = "VowelOnset")

If we check the message time again, we now see that the message occurs at time 0 in the Align column.

check_msg_time(data = aligned1, Msg = "VowelOnset")

## # A tibble: 320 x 3
##    Event    SAMPLE_MESSAGE Align
##    <fctr>   <fctr>         <dbl>
##  1 14001.1  VowelOnset         0
##  2 14001.2  VowelOnset         0
##  3 14001.3  VowelOnset         0
##  4 14001.4  VowelOnset         0
##  5 14001.5  VowelOnset         0
##  6 14001.6  VowelOnset         0
##  7 14001.7  VowelOnset         0
##  8 14001.8  VowelOnset         0
##  9 14001.9  VowelOnset         0
## 10 14001.10 VowelOnset         0
## # ... with 310 more rows
…
Perhaps more meaningfully, we can check the message time again. We can see that our message is still the zero point in the Time series column.

check_msg_time(data = aligned2, Msg = "VowelOnset")

## # A tibble: 320 x 3
##    Event   SAMPLE_MESSAGE  Time
##    <fctr>  <fctr>         <dbl>
##  1 14001.1 VowelOnset         0
##  2 14002.1 VowelOnset         0
##  3 14003.1 VowelOnset         0
##  4 14004.1 VowelOnset         0
##  5 14005.1 VowelOnset         0
##  6 14006.1 VowelOnset         0
##  7 14008.1 VowelOnset         0
##  8 14010.1 VowelOnset         0
##  9 14001.2 VowelOnset         0
## 10 14002.2 VowelOnset         0
## # ... with 310 more rows
…
